# No previous file for Monongahela
owner = G74
controller = G74
add_core = G74
culture = yodhanpir
religion = gods_of_the_taychend
capital = ""

hre = no

base_tax = 4
base_production = 4
base_manpower = 2

trade_goods = iron

1420.1.1 = {	
	owner = G64
	controller = G64
	add_core = G64
}